.. VortexMethod documentation master file, created by
   sphinx-quickstart on Mon Sep  4 02:26:25 2017.
   You can adapt this file completely to your liking, but it should at least
   contain the root `toctree` directive.

Welcome to VortexMethod's documentation!
========================================

.. toctree::
   :maxdepth: 2
   :caption: Contents:



Indices and tables
==================

* :ref:`genindex`
* :ref:`modindex`
* :ref:`search`
